<svg width="133" height="133" viewBox="0 0 133 133" version="2.0" xmlns="http://www.w3.org/2000/svg" xmlns:xlink="http://www.w3.org/1999/xlink" xmlns:figma="http://www.figma.com/figma/ns">
<title>icon_fullscreen_thin</title>
<desc>Created using Figma (9000)</desc>
<g id="Canvas" transform="translate(-183 128)" figma:type="canvas">
<g id="icon_fullscreen_thin" style="mix-blend-mode:normal;" figma:type="group">
<g id="Square" style="mix-blend-mode:normal;" figma:type="group">
<mask id="mask0_alpha" mask-type="alpha">
<g id="Subtract" style="mix-blend-mode:normal;" figma:type="vector-operation">
<use xlink:href="#path0_fill" transform="translate(181 -103)" style="mix-blend-mode:normal;"/>
</g>
</mask>
<g id="Rectangle" style="mix-blend-mode:normal;" mask="url(#mask0_alpha)" figma:type="rounded-rectangle">
<use xlink:href="#path1_stroke" transform="translate(186 -98)" fill="#FFFFFF" style="mix-blend-mode:normal;"/>
</g>
</g>
<g id="Arrow" style="mix-blend-mode:normal;" figma:type="group">
<g id="Head" style="mix-blend-mode:normal;" figma:type="vector">
<use xlink:href="#path2_stroke" transform="translate(273 -125)" fill="#FFFFFF" style="mix-blend-mode:normal;"/>
</g>
<g id="Group" style="mix-blend-mode:normal;" figma:type="group">
<g id="Line" style="mix-blend-mode:normal;" figma:type="vector">
<use xlink:href="#path3_stroke" transform="translate(236 -122)" fill="#FFFFFF" style="mix-blend-mode:normal;"/>
</g>
</g>
</g>
</g>
</g>
<defs>
<path id="path0_fill" d="
M 0 110
L 110 110
L 110 21.6969
L 55 76.6969
L 33.3031 55
L 88.3031 0
L 0 0
L 0 110
Z"/>
<path id="path1_stroke" d="
M 0 0
L 0 -2.5
C -1.38071 -2.5 -2.5 -1.38071 -2.5 5.55112e-16
L 0 0
Z
M 100 0
L 102.5 0
C 102.5 -1.38071 101.381 -2.5 100 -2.5
L 100 0
Z
M 100 100
L 100 102.5
C 101.381 102.5 102.5 101.381 102.5 100
L 100 100
Z
M 0 100
L -2.5 100
C -2.5 101.381 -1.38071 102.5 5.55112e-16 102.5
L 0 100
Z
M 0 2.5
L 100 2.5
L 100 -2.5
L 0 -2.5
L 0 2.5
Z
M 97.5 0
L 97.5 100
L 102.5 100
L 102.5 0
L 97.5 0
Z
M 100 97.5
L 0 97.5
L 0 102.5
L 100 102.5
L 100 97.5
Z
M 2.5 100
L 2.5 0
L -2.5 0
L -2.5 100
L 2.5 100
Z"/>
<path id="path2_stroke" d="
M 0 -2.5
L -2.5 -2.5
L -2.5 2.5
L 0 2.5
L 0 -2.5
Z
M 40 0
L 42.5 0
C 42.5 -1.38071 41.3807 -2.5 40 -2.5
L 40 0
Z
M 37.5 40
L 37.5 42.5
L 42.5 42.5
L 42.5 40
L 37.5 40
Z
M 0 2.5
L 40 2.5
L 40 -2.5
L 0 -2.5
L 0 2.5
Z
M 37.5 0
L 37.5 40
L 42.5 40
L 42.5 0
L 37.5 0
Z"/>
<path id="path3_stroke" d="
M 75.7678 1.76777
L 77.5355 0
L 74 -3.53553
L 72.2322 -1.76777
L 75.7678 1.76777
Z
M -1.76777 72.2322
L -3.53553 74
L 0 77.5355
L 1.76777 75.7678
L -1.76777 72.2322
Z
M 72.2322 -1.76777
L -1.76777 72.2322
L 1.76777 75.7678
L 75.7678 1.76777
L 72.2322 -1.76777
Z"/>
</defs>
</svg>
